/* XPM */
static char * top_right_active = {
"2 14 3 1", 
".	c None", 
"+	c #000000 s active_shadow_2", 
"%	c #000000 s active_color_2", 
"..", 
"+.", 
"%+", 
"%+", 
"%+", 
"%+", 
"%+", 
"%+", 
"%+", 
"%+", 
"%+", 
"%+", 
"%+", 
"%+", 
};