/* XPM */
static char * close_unfocused = {
"18 14 4 1", 
".	c None", 
"=	c None", 
"@	c None", 
"+	c #A1A1A1", 
"..................", 
"..................", 
"==================", 
"=====@@====@@=====", 
"====@++@==@++@====", 
"====@+++@@+++@====", 
"=====@++++++@=====", 
"======@++++@======", 
"======@++++@======", 
"=====@++++++@=====", 
"====@+++@@+++@====", 
"====@++@==@++@====", 
"=====@@====@@=====", 
"==================", 
};