/* XPM */
static char * menu_focused_prelight = {
"18 14 4 1", 
".	c None", 
"=	c None", 
"@	c #000000", 
"+	c #FFFFFF", 
"..................", 
"..................", 
"==================", 
"==================", 
"==================", 
"====@@@@@@@@@@====", 
"====@++++++++@====", 
"=====@++++++@=====", 
"======@++++@======", 
"=======@++@=======", 
"========@@========", 
"==================", 
"==================", 
"==================", 
};