/* XPM */
static char * maximize_active = {
"18 14 4 1", 
".	c None", 
"=	c #3C3C3C", 
"@	c #3C3C3C", 
"+	c #E6E6E6", 
"..................", 
"..................", 
"===@@@@@@@@@@@@===", 
"===@++++++++++@===", 
"===@++++++++++@===", 
"===@+@@@@@@@@+@===", 
"===@+@======@+@===", 
"===@+@======@+@===", 
"===@+@======@+@===", 
"===@+@======@+@===", 
"===@+@@@@@@@@+@===", 
"===@++++++++++@===", 
"===@@@@@@@@@@@@===", 
"==================", 
};